[{"page":1,"pages":2,"per_page":50,"total":66,"sourceid":"2","lastupdated":"2026-02-24"},[{"indicator":{"id":"SL.UEM.TOTL.ZS","value":"Unemployment, total (% of total labor force) (modeled ILO estimate)"},"country":{"id":"AE","value":"United Arab Emirates"},"countryiso3code":"ARE","date":"2025","value":2.174,"unit":"","obs_status":"","decimal":1},{"indicator":{"id":"SL.UEM.TOTL.ZS","value":"Unemployment, total (% of total labor force) (modeled ILO estimate)"},"country":{"id":"AE","value":"United Arab Emirates"},"countryiso3code":"ARE","date":"2024","value":2.16,"unit":"","obs_status":"","decimal":1},{"indicator":{"id":"SL.UEM.TOTL.ZS","value":"Unemployment, total (% of total labor force) (modeled ILO estimate)"},"country":{"id":"AE","value":"United Arab Emirates"},"countryiso3code":"ARE","date":"2023","value":2.151,"unit":"","obs_status":"","decimal":1},{"indicator":{"id":"SL.UEM.TOTL.ZS","value":"Unemployment, total (% of total labor force) (modeled ILO estimate)"},"country":{"id":"AE","value":"United Arab Emirates"},"countryiso3code":"ARE","date":"2022","value":2.872,"unit":"","obs_status":"","decimal":1},{"indicator":{"id":"SL.UEM.TOTL.ZS","value":"Unemployment, total (% of total labor force) (modeled ILO estimate)"},"country":{"id":"AE","value":"United Arab Emirates"},"countryiso3code":"ARE","date":"2021","value":3.105,"unit":"","obs_status":"","decimal":1},{"indicator":{"id":"SL.UEM.TOTL.ZS","value":"Unemployment, total (% of total labor force) (modeled ILO estimate)"},"country":{"id":"AE","value":"United Arab Emirates"},"countryiso3code":"ARE","date":"2020","value":4.294,"unit":"","obs_status":"","decimal":1},{"indicator":{"id":"SL.UEM.TOTL.ZS","value":"Unemployment, total (% of total labor force) (modeled ILO estimate)"},"country":{"id":"AE","value":"United Arab Emirates"},"countryiso3code":"ARE","date":"2019","value":2.331,"unit":"","obs_status":"","decimal":1},{"indicator":{"id":"SL.UEM.TOTL.ZS","value":"Unemployment, total (% of total labor force) (modeled ILO estimate)"},"country":{"id":"AE","value":"United Arab Emirates"},"countryiso3code":"ARE","date":"2018","value":2.236,"unit":"","obs_status":"","decimal":1},{"indicator":{"id":"SL.UEM.TOTL.ZS","value":"Unemployment, total (% of total labor force) (modeled ILO estimate)"},"country":{"id":"AE","value":"United Arab Emirates"},"countryiso3code":"ARE","date":"2017","value":2.462,"unit":"","obs_status":"","decimal":1},{"indicator":{"id":"SL.UEM.TOTL.ZS","value":"Unemployment, total (% of total labor force) (modeled ILO estimate)"},"country":{"id":"AE","value":"United Arab Emirates"},"countryiso3code":"ARE","date":"2016","value":1.64,"unit":"","obs_status":"","decimal":1},{"indicator":{"id":"SL.UEM.TOTL.ZS","value":"Unemployment, total (% of total labor force) (modeled ILO estimate)"},"country":{"id":"AE","value":"United Arab Emirates"},"countryiso3code":"ARE","date":"2015","value":1.793,"unit":"","obs_status":"","decimal":1},{"indicator":{"id":"SL.UEM.TOTL.ZS","value":"Unemployment, total (% of total labor force) (modeled ILO estimate)"},"country":{"id":"AE","value":"United Arab Emirates"},"countryiso3code":"ARE","date":"2014","value":1.999,"unit":"","obs_status":"","decimal":1},{"indicator":{"id":"SL.UEM.TOTL.ZS","value":"Unemployment, total (% of total labor force) (modeled ILO estimate)"},"country":{"id":"AE","value":"United Arab Emirates"},"countryiso3code":"ARE","date":"2013","value":2.125,"unit":"","obs_status":"","decimal":1},{"indicator":{"id":"SL.UEM.TOTL.ZS","value":"Unemployment, total (% of total labor force) (modeled ILO estimate)"},"country":{"id":"AE","value":"United Arab Emirates"},"countryiso3code":"ARE","date":"2012","value":2.323,"unit":"","obs_status":"","decimal":1},{"indicator":{"id":"SL.UEM.TOTL.ZS","value":"Unemployment, total (% of total labor force) (modeled ILO estimate)"},"country":{"id":"AE","value":"United Arab Emirates"},"countryiso3code":"ARE","date":"2011","value":2.587,"unit":"","obs_status":"","decimal":1},{"indicator":{"id":"SL.UEM.TOTL.ZS","value":"Unemployment, total (% of total labor force) (modeled ILO estimate)"},"country":{"id":"AE","value":"United Arab Emirates"},"countryiso3code":"ARE","date":"2010","value":2.798,"unit":"","obs_status":"","decimal":1},{"indicator":{"id":"SL.UEM.TOTL.ZS","value":"Unemployment, total (% of total labor force) (modeled ILO estimate)"},"country":{"id":"AE","value":"United Arab Emirates"},"countryiso3code":"ARE","date":"2009","value":2.932,"unit":"","obs_status":"","decimal":1},{"indicator":{"id":"SL.UEM.TOTL.ZS","value":"Unemployment, total (% of total labor force) (modeled ILO estimate)"},"country":{"id":"AE","value":"United Arab Emirates"},"countryiso3code":"ARE","date":"2008","value":2.818,"unit":"","obs_status":"","decimal":1},{"indicator":{"id":"SL.UEM.TOTL.ZS","value":"Unemployment, total (% of total labor force) (modeled ILO estimate)"},"country":{"id":"AE","value":"United Arab Emirates"},"countryiso3code":"ARE","date":"2007","value":2.934,"unit":"","obs_status":"","decimal":1},{"indicator":{"id":"SL.UEM.TOTL.ZS","value":"Unemployment, total (% of total labor force) (modeled ILO estimate)"},"country":{"id":"AE","value":"United Arab Emirates"},"countryiso3code":"ARE","date":"2006","value":2.964,"unit":"","obs_status":"","decimal":1},{"indicator":{"id":"SL.UEM.TOTL.ZS","value":"Unemployment, total (% of total labor force) (modeled ILO estimate)"},"country":{"id":"AE","value":"United Arab Emirates"},"countryiso3code":"ARE","date":"2005","value":3.12,"unit":"","obs_status":"","decimal":1},{"indicator":{"id":"SL.UEM.TOTL.ZS","value":"Unemployment, total (% of total labor force) (modeled ILO estimate)"},"country":{"id":"AE","value":"United Arab Emirates"},"countryiso3code":"ARE","date":"2004","value":2.965,"unit":"","obs_status":"","decimal":1},{"indicator":{"id":"SL.UEM.TOTL.ZS","value":"Unemployment, total (% of total labor force) (modeled ILO estimate)"},"country":{"id":"AE","value":"United Arab Emirates"},"countryiso3code":"ARE","date":"2003","value":2.903,"unit":"","obs_status":"","decimal":1},{"indicator":{"id":"SL.UEM.TOTL.ZS","value":"Unemployment, total (% of total labor force) (modeled ILO estimate)"},"country":{"id":"AE","value":"United Arab Emirates"},"countryiso3code":"ARE","date":"2002","value":2.659,"unit":"","obs_status":"","decimal":1},{"indicator":{"id":"SL.UEM.TOTL.ZS","value":"Unemployment, total (% of total labor force) (modeled ILO estimate)"},"country":{"id":"AE","value":"United Arab Emirates"},"countryiso3code":"ARE","date":"2001","value":2.443,"unit":"","obs_status":"","decimal":1},{"indicator":{"id":"SL.UEM.TOTL.ZS","value":"Unemployment, total (% of total labor force) (modeled ILO estimate)"},"country":{"id":"AE","value":"United Arab Emirates"},"countryiso3code":"ARE","date":"2000","value":2.25,"unit":"","obs_status":"","decimal":1},{"indicator":{"id":"SL.UEM.TOTL.ZS","value":"Unemployment, total (% of total labor force) (modeled ILO estimate)"},"country":{"id":"AE","value":"United Arab Emirates"},"countryiso3code":"ARE","date":"1999","value":2.195,"unit":"","obs_status":"","decimal":1},{"indicator":{"id":"SL.UEM.TOTL.ZS","value":"Unemployment, total (% of total labor force) (modeled ILO estimate)"},"country":{"id":"AE","value":"United Arab Emirates"},"countryiso3code":"ARE","date":"1998","value":2.068,"unit":"","obs_status":"","decimal":1},{"indicator":{"id":"SL.UEM.TOTL.ZS","value":"Unemployment, total (% of total labor force) (modeled ILO estimate)"},"country":{"id":"AE","value":"United Arab Emirates"},"countryiso3code":"ARE","date":"1997","value":1.906,"unit":"","obs_status":"","decimal":1},{"indicator":{"id":"SL.UEM.TOTL.ZS","value":"Unemployment, total (% of total labor force) (modeled ILO estimate)"},"country":{"id":"AE","value":"United Arab Emirates"},"countryiso3code":"ARE","date":"1996","value":1.836,"unit":"","obs_status":"","decimal":1},{"indicator":{"id":"SL.UEM.TOTL.ZS","value":"Unemployment, total (% of total labor force) (modeled ILO estimate)"},"country":{"id":"AE","value":"United Arab Emirates"},"countryiso3code":"ARE","date":"1995","value":1.8,"unit":"","obs_status":"","decimal":1},{"indicator":{"id":"SL.UEM.TOTL.ZS","value":"Unemployment, total (% of total labor force) (modeled ILO estimate)"},"country":{"id":"AE","value":"United Arab Emirates"},"countryiso3code":"ARE","date":"1994","value":1.834,"unit":"","obs_status":"","decimal":1},{"indicator":{"id":"SL.UEM.TOTL.ZS","value":"Unemployment, total (% of total labor force) (modeled ILO estimate)"},"country":{"id":"AE","value":"United Arab Emirates"},"countryiso3code":"ARE","date":"1993","value":1.901,"unit":"","obs_status":"","decimal":1},{"indicator":{"id":"SL.UEM.TOTL.ZS","value":"Unemployment, total (% of total labor force) (modeled ILO estimate)"},"country":{"id":"AE","value":"United Arab Emirates"},"countryiso3code":"ARE","date":"1992","value":1.715,"unit":"","obs_status":"","decimal":1},{"indicator":{"id":"SL.UEM.TOTL.ZS","value":"Unemployment, total (% of total labor force) (modeled ILO estimate)"},"country":{"id":"AE","value":"United Arab Emirates"},"countryiso3code":"ARE","date":"1991","value":1.629,"unit":"","obs_status":"","decimal":1},{"indicator":{"id":"SL.UEM.TOTL.ZS","value":"Unemployment, total (% of total labor force) (modeled ILO estimate)"},"country":{"id":"AE","value":"United Arab Emirates"},"countryiso3code":"ARE","date":"1990","value":null,"unit":"","obs_status":"","decimal":1},{"indicator":{"id":"SL.UEM.TOTL.ZS","value":"Unemployment, total (% of total labor force) (modeled ILO estimate)"},"country":{"id":"AE","value":"United Arab Emirates"},"countryiso3code":"ARE","date":"1989","value":null,"unit":"","obs_status":"","decimal":1},{"indicator":{"id":"SL.UEM.TOTL.ZS","value":"Unemployment, total (% of total labor force) (modeled ILO estimate)"},"country":{"id":"AE","value":"United Arab Emirates"},"countryiso3code":"ARE","date":"1988","value":null,"unit":"","obs_status":"","decimal":1},{"indicator":{"id":"SL.UEM.TOTL.ZS","value":"Unemployment, total (% of total labor force) (modeled ILO estimate)"},"country":{"id":"AE","value":"United Arab Emirates"},"countryiso3code":"ARE","date":"1987","value":null,"unit":"","obs_status":"","decimal":1},{"indicator":{"id":"SL.UEM.TOTL.ZS","value":"Unemployment, total (% of total labor force) (modeled ILO estimate)"},"country":{"id":"AE","value":"United Arab Emirates"},"countryiso3code":"ARE","date":"1986","value":null,"unit":"","obs_status":"","decimal":1},{"indicator":{"id":"SL.UEM.TOTL.ZS","value":"Unemployment, total (% of total labor force) (modeled ILO estimate)"},"country":{"id":"AE","value":"United Arab Emirates"},"countryiso3code":"ARE","date":"1985","value":null,"unit":"","obs_status":"","decimal":1},{"indicator":{"id":"SL.UEM.TOTL.ZS","value":"Unemployment, total (% of total labor force) (modeled ILO estimate)"},"country":{"id":"AE","value":"United Arab Emirates"},"countryiso3code":"ARE","date":"1984","value":null,"unit":"","obs_status":"","decimal":1},{"indicator":{"id":"SL.UEM.TOTL.ZS","value":"Unemployment, total (% of total labor force) (modeled ILO estimate)"},"country":{"id":"AE","value":"United Arab Emirates"},"countryiso3code":"ARE","date":"1983","value":null,"unit":"","obs_status":"","decimal":1},{"indicator":{"id":"SL.UEM.TOTL.ZS","value":"Unemployment, total (% of total labor force) (modeled ILO estimate)"},"country":{"id":"AE","value":"United Arab Emirates"},"countryiso3code":"ARE","date":"1982","value":null,"unit":"","obs_status":"","decimal":1},{"indicator":{"id":"SL.UEM.TOTL.ZS","value":"Unemployment, total (% of total labor force) (modeled ILO estimate)"},"country":{"id":"AE","value":"United Arab Emirates"},"countryiso3code":"ARE","date":"1981","value":null,"unit":"","obs_status":"","decimal":1},{"indicator":{"id":"SL.UEM.TOTL.ZS","value":"Unemployment, total (% of total labor force) (modeled ILO estimate)"},"country":{"id":"AE","value":"United Arab Emirates"},"countryiso3code":"ARE","date":"1980","value":null,"unit":"","obs_status":"","decimal":1},{"indicator":{"id":"SL.UEM.TOTL.ZS","value":"Unemployment, total (% of total labor force) (modeled ILO estimate)"},"country":{"id":"AE","value":"United Arab Emirates"},"countryiso3code":"ARE","date":"1979","value":null,"unit":"","obs_status":"","decimal":1},{"indicator":{"id":"SL.UEM.TOTL.ZS","value":"Unemployment, total (% of total labor force) (modeled ILO estimate)"},"country":{"id":"AE","value":"United Arab Emirates"},"countryiso3code":"ARE","date":"1978","value":null,"unit":"","obs_status":"","decimal":1},{"indicator":{"id":"SL.UEM.TOTL.ZS","value":"Unemployment, total (% of total labor force) (modeled ILO estimate)"},"country":{"id":"AE","value":"United Arab Emirates"},"countryiso3code":"ARE","date":"1977","value":null,"unit":"","obs_status":"","decimal":1},{"indicator":{"id":"SL.UEM.TOTL.ZS","value":"Unemployment, total (% of total labor force) (modeled ILO estimate)"},"country":{"id":"AE","value":"United Arab Emirates"},"countryiso3code":"ARE","date":"1976","value":null,"unit":"","obs_status":"","decimal":1}]]