[{"page":1,"pages":2,"per_page":50,"total":66,"sourceid":"2","lastupdated":"2026-02-24"},[{"indicator":{"id":"BX.KLT.DINV.WD.GD.ZS","value":"Foreign direct investment, net inflows (% of GDP)"},"country":{"id":"AE","value":"United Arab Emirates"},"countryiso3code":"ARE","date":"2025","value":null,"unit":"","obs_status":"","decimal":1},{"indicator":{"id":"BX.KLT.DINV.WD.GD.ZS","value":"Foreign direct investment, net inflows (% of GDP)"},"country":{"id":"AE","value":"United Arab Emirates"},"countryiso3code":"ARE","date":"2024","value":8.26261712974626,"unit":"","obs_status":"","decimal":1},{"indicator":{"id":"BX.KLT.DINV.WD.GD.ZS","value":"Foreign direct investment, net inflows (% of GDP)"},"country":{"id":"AE","value":"United Arab Emirates"},"countryiso3code":"ARE","date":"2023","value":5.87184069440898,"unit":"","obs_status":"","decimal":1},{"indicator":{"id":"BX.KLT.DINV.WD.GD.ZS","value":"Foreign direct investment, net inflows (% of GDP)"},"country":{"id":"AE","value":"United Arab Emirates"},"countryiso3code":"ARE","date":"2022","value":4.44591399207935,"unit":"","obs_status":"","decimal":1},{"indicator":{"id":"BX.KLT.DINV.WD.GD.ZS","value":"Foreign direct investment, net inflows (% of GDP)"},"country":{"id":"AE","value":"United Arab Emirates"},"countryiso3code":"ARE","date":"2021","value":4.89230472033291,"unit":"","obs_status":"","decimal":1},{"indicator":{"id":"BX.KLT.DINV.WD.GD.ZS","value":"Foreign direct investment, net inflows (% of GDP)"},"country":{"id":"AE","value":"United Arab Emirates"},"countryiso3code":"ARE","date":"2020","value":5.56735507865122,"unit":"","obs_status":"","decimal":1},{"indicator":{"id":"BX.KLT.DINV.WD.GD.ZS","value":"Foreign direct investment, net inflows (% of GDP)"},"country":{"id":"AE","value":"United Arab Emirates"},"countryiso3code":"ARE","date":"2019","value":4.11928564301823,"unit":"","obs_status":"","decimal":1},{"indicator":{"id":"BX.KLT.DINV.WD.GD.ZS","value":"Foreign direct investment, net inflows (% of GDP)"},"country":{"id":"AE","value":"United Arab Emirates"},"countryiso3code":"ARE","date":"2018","value":2.35729150002132,"unit":"","obs_status":"","decimal":1},{"indicator":{"id":"BX.KLT.DINV.WD.GD.ZS","value":"Foreign direct investment, net inflows (% of GDP)"},"country":{"id":"AE","value":"United Arab Emirates"},"countryiso3code":"ARE","date":"2017","value":2.56696112401594,"unit":"","obs_status":"","decimal":1},{"indicator":{"id":"BX.KLT.DINV.WD.GD.ZS","value":"Foreign direct investment, net inflows (% of GDP)"},"country":{"id":"AE","value":"United Arab Emirates"},"countryiso3code":"ARE","date":"2016","value":2.51620200951453,"unit":"","obs_status":"","decimal":1},{"indicator":{"id":"BX.KLT.DINV.WD.GD.ZS","value":"Foreign direct investment, net inflows (% of GDP)"},"country":{"id":"AE","value":"United Arab Emirates"},"countryiso3code":"ARE","date":"2015","value":2.23861395699196,"unit":"","obs_status":"","decimal":1},{"indicator":{"id":"BX.KLT.DINV.WD.GD.ZS","value":"Foreign direct investment, net inflows (% of GDP)"},"country":{"id":"AE","value":"United Arab Emirates"},"countryiso3code":"ARE","date":"2014","value":2.60546065371654,"unit":"","obs_status":"","decimal":1},{"indicator":{"id":"BX.KLT.DINV.WD.GD.ZS","value":"Foreign direct investment, net inflows (% of GDP)"},"country":{"id":"AE","value":"United Arab Emirates"},"countryiso3code":"ARE","date":"2013","value":2.38382217021709,"unit":"","obs_status":"","decimal":1},{"indicator":{"id":"BX.KLT.DINV.WD.GD.ZS","value":"Foreign direct investment, net inflows (% of GDP)"},"country":{"id":"AE","value":"United Arab Emirates"},"countryiso3code":"ARE","date":"2012","value":2.43554239157448,"unit":"","obs_status":"","decimal":1},{"indicator":{"id":"BX.KLT.DINV.WD.GD.ZS","value":"Foreign direct investment, net inflows (% of GDP)"},"country":{"id":"AE","value":"United Arab Emirates"},"countryiso3code":"ARE","date":"2011","value":1.938861867408,"unit":"","obs_status":"","decimal":1},{"indicator":{"id":"BX.KLT.DINV.WD.GD.ZS","value":"Foreign direct investment, net inflows (% of GDP)"},"country":{"id":"AE","value":"United Arab Emirates"},"countryiso3code":"ARE","date":"2010","value":2.85854032456409,"unit":"","obs_status":"","decimal":1},{"indicator":{"id":"BX.KLT.DINV.WD.GD.ZS","value":"Foreign direct investment, net inflows (% of GDP)"},"country":{"id":"AE","value":"United Arab Emirates"},"countryiso3code":"ARE","date":"2009","value":0.447367365845778,"unit":"","obs_status":"","decimal":1},{"indicator":{"id":"BX.KLT.DINV.WD.GD.ZS","value":"Foreign direct investment, net inflows (% of GDP)"},"country":{"id":"AE","value":"United Arab Emirates"},"countryiso3code":"ARE","date":"2008","value":1.60487460715228,"unit":"","obs_status":"","decimal":1},{"indicator":{"id":"BX.KLT.DINV.WD.GD.ZS","value":"Foreign direct investment, net inflows (% of GDP)"},"country":{"id":"AE","value":"United Arab Emirates"},"countryiso3code":"ARE","date":"2007","value":5.50043971722883,"unit":"","obs_status":"","decimal":1},{"indicator":{"id":"BX.KLT.DINV.WD.GD.ZS","value":"Foreign direct investment, net inflows (% of GDP)"},"country":{"id":"AE","value":"United Arab Emirates"},"countryiso3code":"ARE","date":"2006","value":5.76543753223521,"unit":"","obs_status":"","decimal":1},{"indicator":{"id":"BX.KLT.DINV.WD.GD.ZS","value":"Foreign direct investment, net inflows (% of GDP)"},"country":{"id":"AE","value":"United Arab Emirates"},"countryiso3code":"ARE","date":"2005","value":6.03481604123485,"unit":"","obs_status":"","decimal":1},{"indicator":{"id":"BX.KLT.DINV.WD.GD.ZS","value":"Foreign direct investment, net inflows (% of GDP)"},"country":{"id":"AE","value":"United Arab Emirates"},"countryiso3code":"ARE","date":"2004","value":6.76715211324682,"unit":"","obs_status":"","decimal":1},{"indicator":{"id":"BX.KLT.DINV.WD.GD.ZS","value":"Foreign direct investment, net inflows (% of GDP)"},"country":{"id":"AE","value":"United Arab Emirates"},"countryiso3code":"ARE","date":"2003","value":3.42266271097113,"unit":"","obs_status":"","decimal":1},{"indicator":{"id":"BX.KLT.DINV.WD.GD.ZS","value":"Foreign direct investment, net inflows (% of GDP)"},"country":{"id":"AE","value":"United Arab Emirates"},"countryiso3code":"ARE","date":"2002","value":0.0867813662286139,"unit":"","obs_status":"","decimal":1},{"indicator":{"id":"BX.KLT.DINV.WD.GD.ZS","value":"Foreign direct investment, net inflows (% of GDP)"},"country":{"id":"AE","value":"United Arab Emirates"},"countryiso3code":"ARE","date":"2001","value":1.14589216998935,"unit":"","obs_status":"","decimal":1},{"indicator":{"id":"BX.KLT.DINV.WD.GD.ZS","value":"Foreign direct investment, net inflows (% of GDP)"},"country":{"id":"AE","value":"United Arab Emirates"},"countryiso3code":"ARE","date":"2000","value":-0.485281532912816,"unit":"","obs_status":"","decimal":1},{"indicator":{"id":"BX.KLT.DINV.WD.GD.ZS","value":"Foreign direct investment, net inflows (% of GDP)"},"country":{"id":"AE","value":"United Arab Emirates"},"countryiso3code":"ARE","date":"1999","value":-1.16683578609984,"unit":"","obs_status":"","decimal":1},{"indicator":{"id":"BX.KLT.DINV.WD.GD.ZS","value":"Foreign direct investment, net inflows (% of GDP)"},"country":{"id":"AE","value":"United Arab Emirates"},"countryiso3code":"ARE","date":"1998","value":0.340485312002994,"unit":"","obs_status":"","decimal":1},{"indicator":{"id":"BX.KLT.DINV.WD.GD.ZS","value":"Foreign direct investment, net inflows (% of GDP)"},"country":{"id":"AE","value":"United Arab Emirates"},"countryiso3code":"ARE","date":"1997","value":0.294815985875101,"unit":"","obs_status":"","decimal":1},{"indicator":{"id":"BX.KLT.DINV.WD.GD.ZS","value":"Foreign direct investment, net inflows (% of GDP)"},"country":{"id":"AE","value":"United Arab Emirates"},"countryiso3code":"ARE","date":"1996","value":0.408474866706161,"unit":"","obs_status":"","decimal":1},{"indicator":{"id":"BX.KLT.DINV.WD.GD.ZS","value":"Foreign direct investment, net inflows (% of GDP)"},"country":{"id":"AE","value":"United Arab Emirates"},"countryiso3code":"ARE","date":"1995","value":0.608195467069962,"unit":"","obs_status":"","decimal":1},{"indicator":{"id":"BX.KLT.DINV.WD.GD.ZS","value":"Foreign direct investment, net inflows (% of GDP)"},"country":{"id":"AE","value":"United Arab Emirates"},"countryiso3code":"ARE","date":"1994","value":0.105319789259975,"unit":"","obs_status":"","decimal":1},{"indicator":{"id":"BX.KLT.DINV.WD.GD.ZS","value":"Foreign direct investment, net inflows (% of GDP)"},"country":{"id":"AE","value":"United Arab Emirates"},"countryiso3code":"ARE","date":"1993","value":0.72147194906954,"unit":"","obs_status":"","decimal":1},{"indicator":{"id":"BX.KLT.DINV.WD.GD.ZS","value":"Foreign direct investment, net inflows (% of GDP)"},"country":{"id":"AE","value":"United Arab Emirates"},"countryiso3code":"ARE","date":"1992","value":0.239162943469002,"unit":"","obs_status":"","decimal":1},{"indicator":{"id":"BX.KLT.DINV.WD.GD.ZS","value":"Foreign direct investment, net inflows (% of GDP)"},"country":{"id":"AE","value":"United Arab Emirates"},"countryiso3code":"ARE","date":"1991","value":0.0503179637301319,"unit":"","obs_status":"","decimal":1},{"indicator":{"id":"BX.KLT.DINV.WD.GD.ZS","value":"Foreign direct investment, net inflows (% of GDP)"},"country":{"id":"AE","value":"United Arab Emirates"},"countryiso3code":"ARE","date":"1990","value":-0.228435309603761,"unit":"","obs_status":"","decimal":1},{"indicator":{"id":"BX.KLT.DINV.WD.GD.ZS","value":"Foreign direct investment, net inflows (% of GDP)"},"country":{"id":"AE","value":"United Arab Emirates"},"countryiso3code":"ARE","date":"1989","value":0.0935487850536073,"unit":"","obs_status":"","decimal":1},{"indicator":{"id":"BX.KLT.DINV.WD.GD.ZS","value":"Foreign direct investment, net inflows (% of GDP)"},"country":{"id":"AE","value":"United Arab Emirates"},"countryiso3code":"ARE","date":"1988","value":0.520707068990223,"unit":"","obs_status":"","decimal":1},{"indicator":{"id":"BX.KLT.DINV.WD.GD.ZS","value":"Foreign direct investment, net inflows (% of GDP)"},"country":{"id":"AE","value":"United Arab Emirates"},"countryiso3code":"ARE","date":"1987","value":0.128404884092042,"unit":"","obs_status":"","decimal":1},{"indicator":{"id":"BX.KLT.DINV.WD.GD.ZS","value":"Foreign direct investment, net inflows (% of GDP)"},"country":{"id":"AE","value":"United Arab Emirates"},"countryiso3code":"ARE","date":"1986","value":0.324685539041065,"unit":"","obs_status":"","decimal":1},{"indicator":{"id":"BX.KLT.DINV.WD.GD.ZS","value":"Foreign direct investment, net inflows (% of GDP)"},"country":{"id":"AE","value":"United Arab Emirates"},"countryiso3code":"ARE","date":"1985","value":-0.544187526835552,"unit":"","obs_status":"","decimal":1},{"indicator":{"id":"BX.KLT.DINV.WD.GD.ZS","value":"Foreign direct investment, net inflows (% of GDP)"},"country":{"id":"AE","value":"United Arab Emirates"},"countryiso3code":"ARE","date":"1984","value":0.407195240980733,"unit":"","obs_status":"","decimal":1},{"indicator":{"id":"BX.KLT.DINV.WD.GD.ZS","value":"Foreign direct investment, net inflows (% of GDP)"},"country":{"id":"AE","value":"United Arab Emirates"},"countryiso3code":"ARE","date":"1983","value":0.106393607647695,"unit":"","obs_status":"","decimal":1},{"indicator":{"id":"BX.KLT.DINV.WD.GD.ZS","value":"Foreign direct investment, net inflows (% of GDP)"},"country":{"id":"AE","value":"United Arab Emirates"},"countryiso3code":"ARE","date":"1982","value":0.203892014116107,"unit":"","obs_status":"","decimal":1},{"indicator":{"id":"BX.KLT.DINV.WD.GD.ZS","value":"Foreign direct investment, net inflows (% of GDP)"},"country":{"id":"AE","value":"United Arab Emirates"},"countryiso3code":"ARE","date":"1981","value":-0.0343377746365328,"unit":"","obs_status":"","decimal":1},{"indicator":{"id":"BX.KLT.DINV.WD.GD.ZS","value":"Foreign direct investment, net inflows (% of GDP)"},"country":{"id":"AE","value":"United Arab Emirates"},"countryiso3code":"ARE","date":"1980","value":0.223949268488845,"unit":"","obs_status":"","decimal":1},{"indicator":{"id":"BX.KLT.DINV.WD.GD.ZS","value":"Foreign direct investment, net inflows (% of GDP)"},"country":{"id":"AE","value":"United Arab Emirates"},"countryiso3code":"ARE","date":"1979","value":0.20681708788172,"unit":"","obs_status":"","decimal":1},{"indicator":{"id":"BX.KLT.DINV.WD.GD.ZS","value":"Foreign direct investment, net inflows (% of GDP)"},"country":{"id":"AE","value":"United Arab Emirates"},"countryiso3code":"ARE","date":"1978","value":0.164537297435794,"unit":"","obs_status":"","decimal":1},{"indicator":{"id":"BX.KLT.DINV.WD.GD.ZS","value":"Foreign direct investment, net inflows (% of GDP)"},"country":{"id":"AE","value":"United Arab Emirates"},"countryiso3code":"ARE","date":"1977","value":0.451274583969912,"unit":"","obs_status":"","decimal":1},{"indicator":{"id":"BX.KLT.DINV.WD.GD.ZS","value":"Foreign direct investment, net inflows (% of GDP)"},"country":{"id":"AE","value":"United Arab Emirates"},"countryiso3code":"ARE","date":"1976","value":0.257271594791379,"unit":"","obs_status":"","decimal":1}]]