[{"page":1,"pages":2,"per_page":50,"total":66,"sourceid":"2","lastupdated":"2026-02-24"},[{"indicator":{"id":"NV.IND.MANF.ZS","value":"Manufacturing, value added (% of GDP)"},"country":{"id":"AE","value":"United Arab Emirates"},"countryiso3code":"ARE","date":"2025","value":null,"unit":"","obs_status":"","decimal":0},{"indicator":{"id":"NV.IND.MANF.ZS","value":"Manufacturing, value added (% of GDP)"},"country":{"id":"AE","value":"United Arab Emirates"},"countryiso3code":"ARE","date":"2024","value":9.37363347602288,"unit":"","obs_status":"","decimal":0},{"indicator":{"id":"NV.IND.MANF.ZS","value":"Manufacturing, value added (% of GDP)"},"country":{"id":"AE","value":"United Arab Emirates"},"countryiso3code":"ARE","date":"2023","value":9.45861316188462,"unit":"","obs_status":"","decimal":0},{"indicator":{"id":"NV.IND.MANF.ZS","value":"Manufacturing, value added (% of GDP)"},"country":{"id":"AE","value":"United Arab Emirates"},"countryiso3code":"ARE","date":"2022","value":8.5443545145195,"unit":"","obs_status":"","decimal":0},{"indicator":{"id":"NV.IND.MANF.ZS","value":"Manufacturing, value added (% of GDP)"},"country":{"id":"AE","value":"United Arab Emirates"},"countryiso3code":"ARE","date":"2021","value":8.77237310946903,"unit":"","obs_status":"","decimal":0},{"indicator":{"id":"NV.IND.MANF.ZS","value":"Manufacturing, value added (% of GDP)"},"country":{"id":"AE","value":"United Arab Emirates"},"countryiso3code":"ARE","date":"2020","value":8.99207655543247,"unit":"","obs_status":"","decimal":0},{"indicator":{"id":"NV.IND.MANF.ZS","value":"Manufacturing, value added (% of GDP)"},"country":{"id":"AE","value":"United Arab Emirates"},"countryiso3code":"ARE","date":"2019","value":8.84290478001298,"unit":"","obs_status":"","decimal":0},{"indicator":{"id":"NV.IND.MANF.ZS","value":"Manufacturing, value added (% of GDP)"},"country":{"id":"AE","value":"United Arab Emirates"},"countryiso3code":"ARE","date":"2018","value":8.72303775687487,"unit":"","obs_status":"","decimal":0},{"indicator":{"id":"NV.IND.MANF.ZS","value":"Manufacturing, value added (% of GDP)"},"country":{"id":"AE","value":"United Arab Emirates"},"countryiso3code":"ARE","date":"2017","value":9.1350639075767,"unit":"","obs_status":"","decimal":0},{"indicator":{"id":"NV.IND.MANF.ZS","value":"Manufacturing, value added (% of GDP)"},"country":{"id":"AE","value":"United Arab Emirates"},"countryiso3code":"ARE","date":"2016","value":9.04122820032871,"unit":"","obs_status":"","decimal":0},{"indicator":{"id":"NV.IND.MANF.ZS","value":"Manufacturing, value added (% of GDP)"},"country":{"id":"AE","value":"United Arab Emirates"},"countryiso3code":"ARE","date":"2015","value":8.88504101808103,"unit":"","obs_status":"","decimal":0},{"indicator":{"id":"NV.IND.MANF.ZS","value":"Manufacturing, value added (% of GDP)"},"country":{"id":"AE","value":"United Arab Emirates"},"countryiso3code":"ARE","date":"2014","value":7.87817582855572,"unit":"","obs_status":"","decimal":0},{"indicator":{"id":"NV.IND.MANF.ZS","value":"Manufacturing, value added (% of GDP)"},"country":{"id":"AE","value":"United Arab Emirates"},"countryiso3code":"ARE","date":"2013","value":7.69049758836887,"unit":"","obs_status":"","decimal":0},{"indicator":{"id":"NV.IND.MANF.ZS","value":"Manufacturing, value added (% of GDP)"},"country":{"id":"AE","value":"United Arab Emirates"},"countryiso3code":"ARE","date":"2012","value":7.83232838879361,"unit":"","obs_status":"","decimal":0},{"indicator":{"id":"NV.IND.MANF.ZS","value":"Manufacturing, value added (% of GDP)"},"country":{"id":"AE","value":"United Arab Emirates"},"countryiso3code":"ARE","date":"2011","value":7.85633298787347,"unit":"","obs_status":"","decimal":0},{"indicator":{"id":"NV.IND.MANF.ZS","value":"Manufacturing, value added (% of GDP)"},"country":{"id":"AE","value":"United Arab Emirates"},"countryiso3code":"ARE","date":"2010","value":8.09883892751659,"unit":"","obs_status":"","decimal":0},{"indicator":{"id":"NV.IND.MANF.ZS","value":"Manufacturing, value added (% of GDP)"},"country":{"id":"AE","value":"United Arab Emirates"},"countryiso3code":"ARE","date":"2009","value":9.19537711686217,"unit":"","obs_status":"","decimal":0},{"indicator":{"id":"NV.IND.MANF.ZS","value":"Manufacturing, value added (% of GDP)"},"country":{"id":"AE","value":"United Arab Emirates"},"countryiso3code":"ARE","date":"2008","value":8.60026538838952,"unit":"","obs_status":"","decimal":0},{"indicator":{"id":"NV.IND.MANF.ZS","value":"Manufacturing, value added (% of GDP)"},"country":{"id":"AE","value":"United Arab Emirates"},"countryiso3code":"ARE","date":"2007","value":9.0255775725641,"unit":"","obs_status":"","decimal":0},{"indicator":{"id":"NV.IND.MANF.ZS","value":"Manufacturing, value added (% of GDP)"},"country":{"id":"AE","value":"United Arab Emirates"},"countryiso3code":"ARE","date":"2006","value":9.65695462798033,"unit":"","obs_status":"","decimal":0},{"indicator":{"id":"NV.IND.MANF.ZS","value":"Manufacturing, value added (% of GDP)"},"country":{"id":"AE","value":"United Arab Emirates"},"countryiso3code":"ARE","date":"2005","value":10.608039735308,"unit":"","obs_status":"","decimal":0},{"indicator":{"id":"NV.IND.MANF.ZS","value":"Manufacturing, value added (% of GDP)"},"country":{"id":"AE","value":"United Arab Emirates"},"countryiso3code":"ARE","date":"2004","value":11.5123829171924,"unit":"","obs_status":"","decimal":0},{"indicator":{"id":"NV.IND.MANF.ZS","value":"Manufacturing, value added (% of GDP)"},"country":{"id":"AE","value":"United Arab Emirates"},"countryiso3code":"ARE","date":"2003","value":12.2624610762446,"unit":"","obs_status":"","decimal":0},{"indicator":{"id":"NV.IND.MANF.ZS","value":"Manufacturing, value added (% of GDP)"},"country":{"id":"AE","value":"United Arab Emirates"},"countryiso3code":"ARE","date":"2002","value":13.0634763203571,"unit":"","obs_status":"","decimal":0},{"indicator":{"id":"NV.IND.MANF.ZS","value":"Manufacturing, value added (% of GDP)"},"country":{"id":"AE","value":"United Arab Emirates"},"countryiso3code":"ARE","date":"2001","value":13.3137591852656,"unit":"","obs_status":"","decimal":0},{"indicator":{"id":"NV.IND.MANF.ZS","value":"Manufacturing, value added (% of GDP)"},"country":{"id":"AE","value":"United Arab Emirates"},"countryiso3code":"ARE","date":"2000","value":9.07200029229159,"unit":"","obs_status":"","decimal":0},{"indicator":{"id":"NV.IND.MANF.ZS","value":"Manufacturing, value added (% of GDP)"},"country":{"id":"AE","value":"United Arab Emirates"},"countryiso3code":"ARE","date":"1999","value":8.55748953651097,"unit":"","obs_status":"","decimal":0},{"indicator":{"id":"NV.IND.MANF.ZS","value":"Manufacturing, value added (% of GDP)"},"country":{"id":"AE","value":"United Arab Emirates"},"countryiso3code":"ARE","date":"1998","value":8.63108731478083,"unit":"","obs_status":"","decimal":0},{"indicator":{"id":"NV.IND.MANF.ZS","value":"Manufacturing, value added (% of GDP)"},"country":{"id":"AE","value":"United Arab Emirates"},"countryiso3code":"ARE","date":"1997","value":7.89550062539303,"unit":"","obs_status":"","decimal":0},{"indicator":{"id":"NV.IND.MANF.ZS","value":"Manufacturing, value added (% of GDP)"},"country":{"id":"AE","value":"United Arab Emirates"},"countryiso3code":"ARE","date":"1996","value":6.63729265402844,"unit":"","obs_status":"","decimal":0},{"indicator":{"id":"NV.IND.MANF.ZS","value":"Manufacturing, value added (% of GDP)"},"country":{"id":"AE","value":"United Arab Emirates"},"countryiso3code":"ARE","date":"1995","value":6.77246265719199,"unit":"","obs_status":"","decimal":0},{"indicator":{"id":"NV.IND.MANF.ZS","value":"Manufacturing, value added (% of GDP)"},"country":{"id":"AE","value":"United Arab Emirates"},"countryiso3code":"ARE","date":"1994","value":6.58769274582126,"unit":"","obs_status":"","decimal":0},{"indicator":{"id":"NV.IND.MANF.ZS","value":"Manufacturing, value added (% of GDP)"},"country":{"id":"AE","value":"United Arab Emirates"},"countryiso3code":"ARE","date":"1993","value":7.8437806072478,"unit":"","obs_status":"","decimal":0},{"indicator":{"id":"NV.IND.MANF.ZS","value":"Manufacturing, value added (% of GDP)"},"country":{"id":"AE","value":"United Arab Emirates"},"countryiso3code":"ARE","date":"1992","value":7.58367150146651,"unit":"","obs_status":"","decimal":0},{"indicator":{"id":"NV.IND.MANF.ZS","value":"Manufacturing, value added (% of GDP)"},"country":{"id":"AE","value":"United Arab Emirates"},"countryiso3code":"ARE","date":"1991","value":7.42306391613121,"unit":"","obs_status":"","decimal":0},{"indicator":{"id":"NV.IND.MANF.ZS","value":"Manufacturing, value added (% of GDP)"},"country":{"id":"AE","value":"United Arab Emirates"},"countryiso3code":"ARE","date":"1990","value":7.4938885157824,"unit":"","obs_status":"","decimal":0},{"indicator":{"id":"NV.IND.MANF.ZS","value":"Manufacturing, value added (% of GDP)"},"country":{"id":"AE","value":"United Arab Emirates"},"countryiso3code":"ARE","date":"1989","value":8.16657688315442,"unit":"","obs_status":"","decimal":0},{"indicator":{"id":"NV.IND.MANF.ZS","value":"Manufacturing, value added (% of GDP)"},"country":{"id":"AE","value":"United Arab Emirates"},"countryiso3code":"ARE","date":"1988","value":8.84071248347951,"unit":"","obs_status":"","decimal":0},{"indicator":{"id":"NV.IND.MANF.ZS","value":"Manufacturing, value added (% of GDP)"},"country":{"id":"AE","value":"United Arab Emirates"},"countryiso3code":"ARE","date":"1987","value":8.77449108700372,"unit":"","obs_status":"","decimal":0},{"indicator":{"id":"NV.IND.MANF.ZS","value":"Manufacturing, value added (% of GDP)"},"country":{"id":"AE","value":"United Arab Emirates"},"countryiso3code":"ARE","date":"1986","value":8.27561854470455,"unit":"","obs_status":"","decimal":0},{"indicator":{"id":"NV.IND.MANF.ZS","value":"Manufacturing, value added (% of GDP)"},"country":{"id":"AE","value":"United Arab Emirates"},"countryiso3code":"ARE","date":"1985","value":8.92751717475311,"unit":"","obs_status":"","decimal":0},{"indicator":{"id":"NV.IND.MANF.ZS","value":"Manufacturing, value added (% of GDP)"},"country":{"id":"AE","value":"United Arab Emirates"},"countryiso3code":"ARE","date":"1984","value":9.14469269010992,"unit":"","obs_status":"","decimal":0},{"indicator":{"id":"NV.IND.MANF.ZS","value":"Manufacturing, value added (% of GDP)"},"country":{"id":"AE","value":"United Arab Emirates"},"countryiso3code":"ARE","date":"1983","value":8.76975262678911,"unit":"","obs_status":"","decimal":0},{"indicator":{"id":"NV.IND.MANF.ZS","value":"Manufacturing, value added (% of GDP)"},"country":{"id":"AE","value":"United Arab Emirates"},"countryiso3code":"ARE","date":"1982","value":7.92687202019258,"unit":"","obs_status":"","decimal":0},{"indicator":{"id":"NV.IND.MANF.ZS","value":"Manufacturing, value added (% of GDP)"},"country":{"id":"AE","value":"United Arab Emirates"},"countryiso3code":"ARE","date":"1981","value":6.41237306946875,"unit":"","obs_status":"","decimal":0},{"indicator":{"id":"NV.IND.MANF.ZS","value":"Manufacturing, value added (% of GDP)"},"country":{"id":"AE","value":"United Arab Emirates"},"countryiso3code":"ARE","date":"1980","value":3.72808374268427,"unit":"","obs_status":"","decimal":0},{"indicator":{"id":"NV.IND.MANF.ZS","value":"Manufacturing, value added (% of GDP)"},"country":{"id":"AE","value":"United Arab Emirates"},"countryiso3code":"ARE","date":"1979","value":3.05756754261542,"unit":"","obs_status":"","decimal":0},{"indicator":{"id":"NV.IND.MANF.ZS","value":"Manufacturing, value added (% of GDP)"},"country":{"id":"AE","value":"United Arab Emirates"},"countryiso3code":"ARE","date":"1978","value":3.43216609989027,"unit":"","obs_status":"","decimal":0},{"indicator":{"id":"NV.IND.MANF.ZS","value":"Manufacturing, value added (% of GDP)"},"country":{"id":"AE","value":"United Arab Emirates"},"countryiso3code":"ARE","date":"1977","value":2.74407202159,"unit":"","obs_status":"","decimal":0},{"indicator":{"id":"NV.IND.MANF.ZS","value":"Manufacturing, value added (% of GDP)"},"country":{"id":"AE","value":"United Arab Emirates"},"countryiso3code":"ARE","date":"1976","value":1.12309252017748,"unit":"","obs_status":"","decimal":0}]]