[{"page":1,"pages":2,"per_page":50,"total":66,"sourceid":"2","lastupdated":"2026-02-24"},[{"indicator":{"id":"NE.EXP.GNFS.ZS","value":"Exports of goods and services (% of GDP)"},"country":{"id":"AE","value":"United Arab Emirates"},"countryiso3code":"ARE","date":"2025","value":null,"unit":"","obs_status":"","decimal":1},{"indicator":{"id":"NE.EXP.GNFS.ZS","value":"Exports of goods and services (% of GDP)"},"country":{"id":"AE","value":"United Arab Emirates"},"countryiso3code":"ARE","date":"2024","value":null,"unit":"","obs_status":"","decimal":1},{"indicator":{"id":"NE.EXP.GNFS.ZS","value":"Exports of goods and services (% of GDP)"},"country":{"id":"AE","value":"United Arab Emirates"},"countryiso3code":"ARE","date":"2023","value":106.846139017261,"unit":"","obs_status":"","decimal":1},{"indicator":{"id":"NE.EXP.GNFS.ZS","value":"Exports of goods and services (% of GDP)"},"country":{"id":"AE","value":"United Arab Emirates"},"countryiso3code":"ARE","date":"2022","value":102.051988974133,"unit":"","obs_status":"","decimal":1},{"indicator":{"id":"NE.EXP.GNFS.ZS","value":"Exports of goods and services (% of GDP)"},"country":{"id":"AE","value":"United Arab Emirates"},"countryiso3code":"ARE","date":"2021","value":100.642574267637,"unit":"","obs_status":"","decimal":1},{"indicator":{"id":"NE.EXP.GNFS.ZS","value":"Exports of goods and services (% of GDP)"},"country":{"id":"AE","value":"United Arab Emirates"},"countryiso3code":"ARE","date":"2020","value":98.0724675358339,"unit":"","obs_status":"","decimal":1},{"indicator":{"id":"NE.EXP.GNFS.ZS","value":"Exports of goods and services (% of GDP)"},"country":{"id":"AE","value":"United Arab Emirates"},"countryiso3code":"ARE","date":"2019","value":93.3023091201398,"unit":"","obs_status":"","decimal":1},{"indicator":{"id":"NE.EXP.GNFS.ZS","value":"Exports of goods and services (% of GDP)"},"country":{"id":"AE","value":"United Arab Emirates"},"countryiso3code":"ARE","date":"2018","value":90.8429581255868,"unit":"","obs_status":"","decimal":1},{"indicator":{"id":"NE.EXP.GNFS.ZS","value":"Exports of goods and services (% of GDP)"},"country":{"id":"AE","value":"United Arab Emirates"},"countryiso3code":"ARE","date":"2017","value":94.7373963619868,"unit":"","obs_status":"","decimal":1},{"indicator":{"id":"NE.EXP.GNFS.ZS","value":"Exports of goods and services (% of GDP)"},"country":{"id":"AE","value":"United Arab Emirates"},"countryiso3code":"ARE","date":"2016","value":94.4747534696859,"unit":"","obs_status":"","decimal":1},{"indicator":{"id":"NE.EXP.GNFS.ZS","value":"Exports of goods and services (% of GDP)"},"country":{"id":"AE","value":"United Arab Emirates"},"countryiso3code":"ARE","date":"2015","value":93.8625430925095,"unit":"","obs_status":"","decimal":1},{"indicator":{"id":"NE.EXP.GNFS.ZS","value":"Exports of goods and services (% of GDP)"},"country":{"id":"AE","value":"United Arab Emirates"},"countryiso3code":"ARE","date":"2014","value":94.773856080155,"unit":"","obs_status":"","decimal":1},{"indicator":{"id":"NE.EXP.GNFS.ZS","value":"Exports of goods and services (% of GDP)"},"country":{"id":"AE","value":"United Arab Emirates"},"countryiso3code":"ARE","date":"2013","value":95.7551835445394,"unit":"","obs_status":"","decimal":1},{"indicator":{"id":"NE.EXP.GNFS.ZS","value":"Exports of goods and services (% of GDP)"},"country":{"id":"AE","value":"United Arab Emirates"},"countryiso3code":"ARE","date":"2012","value":95.6008662534124,"unit":"","obs_status":"","decimal":1},{"indicator":{"id":"NE.EXP.GNFS.ZS","value":"Exports of goods and services (% of GDP)"},"country":{"id":"AE","value":"United Arab Emirates"},"countryiso3code":"ARE","date":"2011","value":85.628648366152,"unit":"","obs_status":"","decimal":1},{"indicator":{"id":"NE.EXP.GNFS.ZS","value":"Exports of goods and services (% of GDP)"},"country":{"id":"AE","value":"United Arab Emirates"},"countryiso3code":"ARE","date":"2010","value":77.4455343570214,"unit":"","obs_status":"","decimal":1},{"indicator":{"id":"NE.EXP.GNFS.ZS","value":"Exports of goods and services (% of GDP)"},"country":{"id":"AE","value":"United Arab Emirates"},"countryiso3code":"ARE","date":"2009","value":79.6533178621862,"unit":"","obs_status":"","decimal":1},{"indicator":{"id":"NE.EXP.GNFS.ZS","value":"Exports of goods and services (% of GDP)"},"country":{"id":"AE","value":"United Arab Emirates"},"countryiso3code":"ARE","date":"2008","value":78.86788870154,"unit":"","obs_status":"","decimal":1},{"indicator":{"id":"NE.EXP.GNFS.ZS","value":"Exports of goods and services (% of GDP)"},"country":{"id":"AE","value":"United Arab Emirates"},"countryiso3code":"ARE","date":"2007","value":72.3840975003088,"unit":"","obs_status":"","decimal":1},{"indicator":{"id":"NE.EXP.GNFS.ZS","value":"Exports of goods and services (% of GDP)"},"country":{"id":"AE","value":"United Arab Emirates"},"countryiso3code":"ARE","date":"2006","value":68.6277976715135,"unit":"","obs_status":"","decimal":1},{"indicator":{"id":"NE.EXP.GNFS.ZS","value":"Exports of goods and services (% of GDP)"},"country":{"id":"AE","value":"United Arab Emirates"},"countryiso3code":"ARE","date":"2005","value":67.5853113898841,"unit":"","obs_status":"","decimal":1},{"indicator":{"id":"NE.EXP.GNFS.ZS","value":"Exports of goods and services (% of GDP)"},"country":{"id":"AE","value":"United Arab Emirates"},"countryiso3code":"ARE","date":"2004","value":63.5677298138648,"unit":"","obs_status":"","decimal":1},{"indicator":{"id":"NE.EXP.GNFS.ZS","value":"Exports of goods and services (% of GDP)"},"country":{"id":"AE","value":"United Arab Emirates"},"countryiso3code":"ARE","date":"2003","value":55.9231992151745,"unit":"","obs_status":"","decimal":1},{"indicator":{"id":"NE.EXP.GNFS.ZS","value":"Exports of goods and services (% of GDP)"},"country":{"id":"AE","value":"United Arab Emirates"},"countryiso3code":"ARE","date":"2002","value":49.5033473840813,"unit":"","obs_status":"","decimal":1},{"indicator":{"id":"NE.EXP.GNFS.ZS","value":"Exports of goods and services (% of GDP)"},"country":{"id":"AE","value":"United Arab Emirates"},"countryiso3code":"ARE","date":"2001","value":49.1592253276122,"unit":"","obs_status":"","decimal":1},{"indicator":{"id":"NE.EXP.GNFS.ZS","value":"Exports of goods and services (% of GDP)"},"country":{"id":"AE","value":"United Arab Emirates"},"countryiso3code":"ARE","date":"2000","value":null,"unit":"","obs_status":"","decimal":1},{"indicator":{"id":"NE.EXP.GNFS.ZS","value":"Exports of goods and services (% of GDP)"},"country":{"id":"AE","value":"United Arab Emirates"},"countryiso3code":"ARE","date":"1999","value":null,"unit":"","obs_status":"","decimal":1},{"indicator":{"id":"NE.EXP.GNFS.ZS","value":"Exports of goods and services (% of GDP)"},"country":{"id":"AE","value":"United Arab Emirates"},"countryiso3code":"ARE","date":"1998","value":null,"unit":"","obs_status":"","decimal":1},{"indicator":{"id":"NE.EXP.GNFS.ZS","value":"Exports of goods and services (% of GDP)"},"country":{"id":"AE","value":"United Arab Emirates"},"countryiso3code":"ARE","date":"1997","value":null,"unit":"","obs_status":"","decimal":1},{"indicator":{"id":"NE.EXP.GNFS.ZS","value":"Exports of goods and services (% of GDP)"},"country":{"id":"AE","value":"United Arab Emirates"},"countryiso3code":"ARE","date":"1996","value":null,"unit":"","obs_status":"","decimal":1},{"indicator":{"id":"NE.EXP.GNFS.ZS","value":"Exports of goods and services (% of GDP)"},"country":{"id":"AE","value":"United Arab Emirates"},"countryiso3code":"ARE","date":"1995","value":null,"unit":"","obs_status":"","decimal":1},{"indicator":{"id":"NE.EXP.GNFS.ZS","value":"Exports of goods and services (% of GDP)"},"country":{"id":"AE","value":"United Arab Emirates"},"countryiso3code":"ARE","date":"1994","value":null,"unit":"","obs_status":"","decimal":1},{"indicator":{"id":"NE.EXP.GNFS.ZS","value":"Exports of goods and services (% of GDP)"},"country":{"id":"AE","value":"United Arab Emirates"},"countryiso3code":"ARE","date":"1993","value":null,"unit":"","obs_status":"","decimal":1},{"indicator":{"id":"NE.EXP.GNFS.ZS","value":"Exports of goods and services (% of GDP)"},"country":{"id":"AE","value":"United Arab Emirates"},"countryiso3code":"ARE","date":"1992","value":null,"unit":"","obs_status":"","decimal":1},{"indicator":{"id":"NE.EXP.GNFS.ZS","value":"Exports of goods and services (% of GDP)"},"country":{"id":"AE","value":"United Arab Emirates"},"countryiso3code":"ARE","date":"1991","value":null,"unit":"","obs_status":"","decimal":1},{"indicator":{"id":"NE.EXP.GNFS.ZS","value":"Exports of goods and services (% of GDP)"},"country":{"id":"AE","value":"United Arab Emirates"},"countryiso3code":"ARE","date":"1990","value":null,"unit":"","obs_status":"","decimal":1},{"indicator":{"id":"NE.EXP.GNFS.ZS","value":"Exports of goods and services (% of GDP)"},"country":{"id":"AE","value":"United Arab Emirates"},"countryiso3code":"ARE","date":"1989","value":null,"unit":"","obs_status":"","decimal":1},{"indicator":{"id":"NE.EXP.GNFS.ZS","value":"Exports of goods and services (% of GDP)"},"country":{"id":"AE","value":"United Arab Emirates"},"countryiso3code":"ARE","date":"1988","value":null,"unit":"","obs_status":"","decimal":1},{"indicator":{"id":"NE.EXP.GNFS.ZS","value":"Exports of goods and services (% of GDP)"},"country":{"id":"AE","value":"United Arab Emirates"},"countryiso3code":"ARE","date":"1987","value":null,"unit":"","obs_status":"","decimal":1},{"indicator":{"id":"NE.EXP.GNFS.ZS","value":"Exports of goods and services (% of GDP)"},"country":{"id":"AE","value":"United Arab Emirates"},"countryiso3code":"ARE","date":"1986","value":null,"unit":"","obs_status":"","decimal":1},{"indicator":{"id":"NE.EXP.GNFS.ZS","value":"Exports of goods and services (% of GDP)"},"country":{"id":"AE","value":"United Arab Emirates"},"countryiso3code":"ARE","date":"1985","value":null,"unit":"","obs_status":"","decimal":1},{"indicator":{"id":"NE.EXP.GNFS.ZS","value":"Exports of goods and services (% of GDP)"},"country":{"id":"AE","value":"United Arab Emirates"},"countryiso3code":"ARE","date":"1984","value":null,"unit":"","obs_status":"","decimal":1},{"indicator":{"id":"NE.EXP.GNFS.ZS","value":"Exports of goods and services (% of GDP)"},"country":{"id":"AE","value":"United Arab Emirates"},"countryiso3code":"ARE","date":"1983","value":null,"unit":"","obs_status":"","decimal":1},{"indicator":{"id":"NE.EXP.GNFS.ZS","value":"Exports of goods and services (% of GDP)"},"country":{"id":"AE","value":"United Arab Emirates"},"countryiso3code":"ARE","date":"1982","value":null,"unit":"","obs_status":"","decimal":1},{"indicator":{"id":"NE.EXP.GNFS.ZS","value":"Exports of goods and services (% of GDP)"},"country":{"id":"AE","value":"United Arab Emirates"},"countryiso3code":"ARE","date":"1981","value":null,"unit":"","obs_status":"","decimal":1},{"indicator":{"id":"NE.EXP.GNFS.ZS","value":"Exports of goods and services (% of GDP)"},"country":{"id":"AE","value":"United Arab Emirates"},"countryiso3code":"ARE","date":"1980","value":null,"unit":"","obs_status":"","decimal":1},{"indicator":{"id":"NE.EXP.GNFS.ZS","value":"Exports of goods and services (% of GDP)"},"country":{"id":"AE","value":"United Arab Emirates"},"countryiso3code":"ARE","date":"1979","value":null,"unit":"","obs_status":"","decimal":1},{"indicator":{"id":"NE.EXP.GNFS.ZS","value":"Exports of goods and services (% of GDP)"},"country":{"id":"AE","value":"United Arab Emirates"},"countryiso3code":"ARE","date":"1978","value":null,"unit":"","obs_status":"","decimal":1},{"indicator":{"id":"NE.EXP.GNFS.ZS","value":"Exports of goods and services (% of GDP)"},"country":{"id":"AE","value":"United Arab Emirates"},"countryiso3code":"ARE","date":"1977","value":null,"unit":"","obs_status":"","decimal":1},{"indicator":{"id":"NE.EXP.GNFS.ZS","value":"Exports of goods and services (% of GDP)"},"country":{"id":"AE","value":"United Arab Emirates"},"countryiso3code":"ARE","date":"1976","value":null,"unit":"","obs_status":"","decimal":1}]]