[{"page":1,"pages":2,"per_page":50,"total":66,"sourceid":"2","lastupdated":"2026-02-24"},[{"indicator":{"id":"FP.CPI.TOTL.ZG","value":"Inflation, consumer prices (annual %)"},"country":{"id":"AE","value":"United Arab Emirates"},"countryiso3code":"ARE","date":"2025","value":null,"unit":"","obs_status":"","decimal":1},{"indicator":{"id":"FP.CPI.TOTL.ZG","value":"Inflation, consumer prices (annual %)"},"country":{"id":"AE","value":"United Arab Emirates"},"countryiso3code":"ARE","date":"2024","value":1.66336510224894,"unit":"","obs_status":"","decimal":1},{"indicator":{"id":"FP.CPI.TOTL.ZG","value":"Inflation, consumer prices (annual %)"},"country":{"id":"AE","value":"United Arab Emirates"},"countryiso3code":"ARE","date":"2023","value":1.62670837213248,"unit":"","obs_status":"","decimal":1},{"indicator":{"id":"FP.CPI.TOTL.ZG","value":"Inflation, consumer prices (annual %)"},"country":{"id":"AE","value":"United Arab Emirates"},"countryiso3code":"ARE","date":"2022","value":5.29122604376849,"unit":"","obs_status":"","decimal":1},{"indicator":{"id":"FP.CPI.TOTL.ZG","value":"Inflation, consumer prices (annual %)"},"country":{"id":"AE","value":"United Arab Emirates"},"countryiso3code":"ARE","date":"2021","value":0.179935336174431,"unit":"","obs_status":"","decimal":1},{"indicator":{"id":"FP.CPI.TOTL.ZG","value":"Inflation, consumer prices (annual %)"},"country":{"id":"AE","value":"United Arab Emirates"},"countryiso3code":"ARE","date":"2020","value":-2.07940317940944,"unit":"","obs_status":"","decimal":1},{"indicator":{"id":"FP.CPI.TOTL.ZG","value":"Inflation, consumer prices (annual %)"},"country":{"id":"AE","value":"United Arab Emirates"},"countryiso3code":"ARE","date":"2019","value":-1.93108114782173,"unit":"","obs_status":"","decimal":1},{"indicator":{"id":"FP.CPI.TOTL.ZG","value":"Inflation, consumer prices (annual %)"},"country":{"id":"AE","value":"United Arab Emirates"},"countryiso3code":"ARE","date":"2018","value":3.06863379251997,"unit":"","obs_status":"","decimal":1},{"indicator":{"id":"FP.CPI.TOTL.ZG","value":"Inflation, consumer prices (annual %)"},"country":{"id":"AE","value":"United Arab Emirates"},"countryiso3code":"ARE","date":"2017","value":1.96682557818842,"unit":"","obs_status":"","decimal":1},{"indicator":{"id":"FP.CPI.TOTL.ZG","value":"Inflation, consumer prices (annual %)"},"country":{"id":"AE","value":"United Arab Emirates"},"countryiso3code":"ARE","date":"2016","value":1.61748808904198,"unit":"","obs_status":"","decimal":1},{"indicator":{"id":"FP.CPI.TOTL.ZG","value":"Inflation, consumer prices (annual %)"},"country":{"id":"AE","value":"United Arab Emirates"},"countryiso3code":"ARE","date":"2015","value":4.06996608361593,"unit":"","obs_status":"","decimal":1},{"indicator":{"id":"FP.CPI.TOTL.ZG","value":"Inflation, consumer prices (annual %)"},"country":{"id":"AE","value":"United Arab Emirates"},"countryiso3code":"ARE","date":"2014","value":2.34626865671643,"unit":"","obs_status":"","decimal":1},{"indicator":{"id":"FP.CPI.TOTL.ZG","value":"Inflation, consumer prices (annual %)"},"country":{"id":"AE","value":"United Arab Emirates"},"countryiso3code":"ARE","date":"2013","value":1.1011183637571,"unit":"","obs_status":"","decimal":1},{"indicator":{"id":"FP.CPI.TOTL.ZG","value":"Inflation, consumer prices (annual %)"},"country":{"id":"AE","value":"United Arab Emirates"},"countryiso3code":"ARE","date":"2012","value":0.662268900269009,"unit":"","obs_status":"","decimal":1},{"indicator":{"id":"FP.CPI.TOTL.ZG","value":"Inflation, consumer prices (annual %)"},"country":{"id":"AE","value":"United Arab Emirates"},"countryiso3code":"ARE","date":"2011","value":0.87734659568512,"unit":"","obs_status":"","decimal":1},{"indicator":{"id":"FP.CPI.TOTL.ZG","value":"Inflation, consumer prices (annual %)"},"country":{"id":"AE","value":"United Arab Emirates"},"countryiso3code":"ARE","date":"2010","value":0.877983288285867,"unit":"","obs_status":"","decimal":1},{"indicator":{"id":"FP.CPI.TOTL.ZG","value":"Inflation, consumer prices (annual %)"},"country":{"id":"AE","value":"United Arab Emirates"},"countryiso3code":"ARE","date":"2009","value":1.5618131744907,"unit":"","obs_status":"","decimal":1},{"indicator":{"id":"FP.CPI.TOTL.ZG","value":"Inflation, consumer prices (annual %)"},"country":{"id":"AE","value":"United Arab Emirates"},"countryiso3code":"ARE","date":"2008","value":12.2504202448139,"unit":"","obs_status":"","decimal":1},{"indicator":{"id":"FP.CPI.TOTL.ZG","value":"Inflation, consumer prices (annual %)"},"country":{"id":"AE","value":"United Arab Emirates"},"countryiso3code":"ARE","date":"2007","value":null,"unit":"","obs_status":"","decimal":1},{"indicator":{"id":"FP.CPI.TOTL.ZG","value":"Inflation, consumer prices (annual %)"},"country":{"id":"AE","value":"United Arab Emirates"},"countryiso3code":"ARE","date":"2006","value":null,"unit":"","obs_status":"","decimal":1},{"indicator":{"id":"FP.CPI.TOTL.ZG","value":"Inflation, consumer prices (annual %)"},"country":{"id":"AE","value":"United Arab Emirates"},"countryiso3code":"ARE","date":"2005","value":null,"unit":"","obs_status":"","decimal":1},{"indicator":{"id":"FP.CPI.TOTL.ZG","value":"Inflation, consumer prices (annual %)"},"country":{"id":"AE","value":"United Arab Emirates"},"countryiso3code":"ARE","date":"2004","value":null,"unit":"","obs_status":"","decimal":1},{"indicator":{"id":"FP.CPI.TOTL.ZG","value":"Inflation, consumer prices (annual %)"},"country":{"id":"AE","value":"United Arab Emirates"},"countryiso3code":"ARE","date":"2003","value":null,"unit":"","obs_status":"","decimal":1},{"indicator":{"id":"FP.CPI.TOTL.ZG","value":"Inflation, consumer prices (annual %)"},"country":{"id":"AE","value":"United Arab Emirates"},"countryiso3code":"ARE","date":"2002","value":null,"unit":"","obs_status":"","decimal":1},{"indicator":{"id":"FP.CPI.TOTL.ZG","value":"Inflation, consumer prices (annual %)"},"country":{"id":"AE","value":"United Arab Emirates"},"countryiso3code":"ARE","date":"2001","value":null,"unit":"","obs_status":"","decimal":1},{"indicator":{"id":"FP.CPI.TOTL.ZG","value":"Inflation, consumer prices (annual %)"},"country":{"id":"AE","value":"United Arab Emirates"},"countryiso3code":"ARE","date":"2000","value":null,"unit":"","obs_status":"","decimal":1},{"indicator":{"id":"FP.CPI.TOTL.ZG","value":"Inflation, consumer prices (annual %)"},"country":{"id":"AE","value":"United Arab Emirates"},"countryiso3code":"ARE","date":"1999","value":null,"unit":"","obs_status":"","decimal":1},{"indicator":{"id":"FP.CPI.TOTL.ZG","value":"Inflation, consumer prices (annual %)"},"country":{"id":"AE","value":"United Arab Emirates"},"countryiso3code":"ARE","date":"1998","value":null,"unit":"","obs_status":"","decimal":1},{"indicator":{"id":"FP.CPI.TOTL.ZG","value":"Inflation, consumer prices (annual %)"},"country":{"id":"AE","value":"United Arab Emirates"},"countryiso3code":"ARE","date":"1997","value":null,"unit":"","obs_status":"","decimal":1},{"indicator":{"id":"FP.CPI.TOTL.ZG","value":"Inflation, consumer prices (annual %)"},"country":{"id":"AE","value":"United Arab Emirates"},"countryiso3code":"ARE","date":"1996","value":null,"unit":"","obs_status":"","decimal":1},{"indicator":{"id":"FP.CPI.TOTL.ZG","value":"Inflation, consumer prices (annual %)"},"country":{"id":"AE","value":"United Arab Emirates"},"countryiso3code":"ARE","date":"1995","value":null,"unit":"","obs_status":"","decimal":1},{"indicator":{"id":"FP.CPI.TOTL.ZG","value":"Inflation, consumer prices (annual %)"},"country":{"id":"AE","value":"United Arab Emirates"},"countryiso3code":"ARE","date":"1994","value":null,"unit":"","obs_status":"","decimal":1},{"indicator":{"id":"FP.CPI.TOTL.ZG","value":"Inflation, consumer prices (annual %)"},"country":{"id":"AE","value":"United Arab Emirates"},"countryiso3code":"ARE","date":"1993","value":null,"unit":"","obs_status":"","decimal":1},{"indicator":{"id":"FP.CPI.TOTL.ZG","value":"Inflation, consumer prices (annual %)"},"country":{"id":"AE","value":"United Arab Emirates"},"countryiso3code":"ARE","date":"1992","value":null,"unit":"","obs_status":"","decimal":1},{"indicator":{"id":"FP.CPI.TOTL.ZG","value":"Inflation, consumer prices (annual %)"},"country":{"id":"AE","value":"United Arab Emirates"},"countryiso3code":"ARE","date":"1991","value":null,"unit":"","obs_status":"","decimal":1},{"indicator":{"id":"FP.CPI.TOTL.ZG","value":"Inflation, consumer prices (annual %)"},"country":{"id":"AE","value":"United Arab Emirates"},"countryiso3code":"ARE","date":"1990","value":null,"unit":"","obs_status":"","decimal":1},{"indicator":{"id":"FP.CPI.TOTL.ZG","value":"Inflation, consumer prices (annual %)"},"country":{"id":"AE","value":"United Arab Emirates"},"countryiso3code":"ARE","date":"1989","value":null,"unit":"","obs_status":"","decimal":1},{"indicator":{"id":"FP.CPI.TOTL.ZG","value":"Inflation, consumer prices (annual %)"},"country":{"id":"AE","value":"United Arab Emirates"},"countryiso3code":"ARE","date":"1988","value":null,"unit":"","obs_status":"","decimal":1},{"indicator":{"id":"FP.CPI.TOTL.ZG","value":"Inflation, consumer prices (annual %)"},"country":{"id":"AE","value":"United Arab Emirates"},"countryiso3code":"ARE","date":"1987","value":null,"unit":"","obs_status":"","decimal":1},{"indicator":{"id":"FP.CPI.TOTL.ZG","value":"Inflation, consumer prices (annual %)"},"country":{"id":"AE","value":"United Arab Emirates"},"countryiso3code":"ARE","date":"1986","value":null,"unit":"","obs_status":"","decimal":1},{"indicator":{"id":"FP.CPI.TOTL.ZG","value":"Inflation, consumer prices (annual %)"},"country":{"id":"AE","value":"United Arab Emirates"},"countryiso3code":"ARE","date":"1985","value":null,"unit":"","obs_status":"","decimal":1},{"indicator":{"id":"FP.CPI.TOTL.ZG","value":"Inflation, consumer prices (annual %)"},"country":{"id":"AE","value":"United Arab Emirates"},"countryiso3code":"ARE","date":"1984","value":null,"unit":"","obs_status":"","decimal":1},{"indicator":{"id":"FP.CPI.TOTL.ZG","value":"Inflation, consumer prices (annual %)"},"country":{"id":"AE","value":"United Arab Emirates"},"countryiso3code":"ARE","date":"1983","value":null,"unit":"","obs_status":"","decimal":1},{"indicator":{"id":"FP.CPI.TOTL.ZG","value":"Inflation, consumer prices (annual %)"},"country":{"id":"AE","value":"United Arab Emirates"},"countryiso3code":"ARE","date":"1982","value":null,"unit":"","obs_status":"","decimal":1},{"indicator":{"id":"FP.CPI.TOTL.ZG","value":"Inflation, consumer prices (annual %)"},"country":{"id":"AE","value":"United Arab Emirates"},"countryiso3code":"ARE","date":"1981","value":null,"unit":"","obs_status":"","decimal":1},{"indicator":{"id":"FP.CPI.TOTL.ZG","value":"Inflation, consumer prices (annual %)"},"country":{"id":"AE","value":"United Arab Emirates"},"countryiso3code":"ARE","date":"1980","value":null,"unit":"","obs_status":"","decimal":1},{"indicator":{"id":"FP.CPI.TOTL.ZG","value":"Inflation, consumer prices (annual %)"},"country":{"id":"AE","value":"United Arab Emirates"},"countryiso3code":"ARE","date":"1979","value":null,"unit":"","obs_status":"","decimal":1},{"indicator":{"id":"FP.CPI.TOTL.ZG","value":"Inflation, consumer prices (annual %)"},"country":{"id":"AE","value":"United Arab Emirates"},"countryiso3code":"ARE","date":"1978","value":null,"unit":"","obs_status":"","decimal":1},{"indicator":{"id":"FP.CPI.TOTL.ZG","value":"Inflation, consumer prices (annual %)"},"country":{"id":"AE","value":"United Arab Emirates"},"countryiso3code":"ARE","date":"1977","value":null,"unit":"","obs_status":"","decimal":1},{"indicator":{"id":"FP.CPI.TOTL.ZG","value":"Inflation, consumer prices (annual %)"},"country":{"id":"AE","value":"United Arab Emirates"},"countryiso3code":"ARE","date":"1976","value":null,"unit":"","obs_status":"","decimal":1}]]