[{"page":1,"pages":2,"per_page":50,"total":66,"sourceid":"2","lastupdated":"2026-02-24"},[{"indicator":{"id":"NY.GDP.MKTP.KD.ZG","value":"GDP growth (annual %)"},"country":{"id":"AE","value":"United Arab Emirates"},"countryiso3code":"ARE","date":"2025","value":null,"unit":"","obs_status":"","decimal":1},{"indicator":{"id":"NY.GDP.MKTP.KD.ZG","value":"GDP growth (annual %)"},"country":{"id":"AE","value":"United Arab Emirates"},"countryiso3code":"ARE","date":"2024","value":3.99180705485398,"unit":"","obs_status":"","decimal":1},{"indicator":{"id":"NY.GDP.MKTP.KD.ZG","value":"GDP growth (annual %)"},"country":{"id":"AE","value":"United Arab Emirates"},"countryiso3code":"ARE","date":"2023","value":4.30118228020602,"unit":"","obs_status":"","decimal":1},{"indicator":{"id":"NY.GDP.MKTP.KD.ZG","value":"GDP growth (annual %)"},"country":{"id":"AE","value":"United Arab Emirates"},"countryiso3code":"ARE","date":"2022","value":7.51448425801082,"unit":"","obs_status":"","decimal":1},{"indicator":{"id":"NY.GDP.MKTP.KD.ZG","value":"GDP growth (annual %)"},"country":{"id":"AE","value":"United Arab Emirates"},"countryiso3code":"ARE","date":"2021","value":4.55278571242283,"unit":"","obs_status":"","decimal":1},{"indicator":{"id":"NY.GDP.MKTP.KD.ZG","value":"GDP growth (annual %)"},"country":{"id":"AE","value":"United Arab Emirates"},"countryiso3code":"ARE","date":"2020","value":-8.69342617885171,"unit":"","obs_status":"","decimal":1},{"indicator":{"id":"NY.GDP.MKTP.KD.ZG","value":"GDP growth (annual %)"},"country":{"id":"AE","value":"United Arab Emirates"},"countryiso3code":"ARE","date":"2019","value":1.27134240761141,"unit":"","obs_status":"","decimal":1},{"indicator":{"id":"NY.GDP.MKTP.KD.ZG","value":"GDP growth (annual %)"},"country":{"id":"AE","value":"United Arab Emirates"},"countryiso3code":"ARE","date":"2018","value":1.53716683173516,"unit":"","obs_status":"","decimal":1},{"indicator":{"id":"NY.GDP.MKTP.KD.ZG","value":"GDP growth (annual %)"},"country":{"id":"AE","value":"United Arab Emirates"},"countryiso3code":"ARE","date":"2017","value":-1.06137661464977,"unit":"","obs_status":"","decimal":1},{"indicator":{"id":"NY.GDP.MKTP.KD.ZG","value":"GDP growth (annual %)"},"country":{"id":"AE","value":"United Arab Emirates"},"countryiso3code":"ARE","date":"2016","value":5.65793329224303,"unit":"","obs_status":"","decimal":1},{"indicator":{"id":"NY.GDP.MKTP.KD.ZG","value":"GDP growth (annual %)"},"country":{"id":"AE","value":"United Arab Emirates"},"countryiso3code":"ARE","date":"2015","value":7.08767348587587,"unit":"","obs_status":"","decimal":1},{"indicator":{"id":"NY.GDP.MKTP.KD.ZG","value":"GDP growth (annual %)"},"country":{"id":"AE","value":"United Arab Emirates"},"countryiso3code":"ARE","date":"2014","value":4.63288144983127,"unit":"","obs_status":"","decimal":1},{"indicator":{"id":"NY.GDP.MKTP.KD.ZG","value":"GDP growth (annual %)"},"country":{"id":"AE","value":"United Arab Emirates"},"countryiso3code":"ARE","date":"2013","value":4.91847806719888,"unit":"","obs_status":"","decimal":1},{"indicator":{"id":"NY.GDP.MKTP.KD.ZG","value":"GDP growth (annual %)"},"country":{"id":"AE","value":"United Arab Emirates"},"countryiso3code":"ARE","date":"2012","value":4.6832657020049,"unit":"","obs_status":"","decimal":1},{"indicator":{"id":"NY.GDP.MKTP.KD.ZG","value":"GDP growth (annual %)"},"country":{"id":"AE","value":"United Arab Emirates"},"countryiso3code":"ARE","date":"2011","value":6.73646786920814,"unit":"","obs_status":"","decimal":1},{"indicator":{"id":"NY.GDP.MKTP.KD.ZG","value":"GDP growth (annual %)"},"country":{"id":"AE","value":"United Arab Emirates"},"countryiso3code":"ARE","date":"2010","value":1.60285004671343,"unit":"","obs_status":"","decimal":1},{"indicator":{"id":"NY.GDP.MKTP.KD.ZG","value":"GDP growth (annual %)"},"country":{"id":"AE","value":"United Arab Emirates"},"countryiso3code":"ARE","date":"2009","value":-5.24292190384988,"unit":"","obs_status":"","decimal":1},{"indicator":{"id":"NY.GDP.MKTP.KD.ZG","value":"GDP growth (annual %)"},"country":{"id":"AE","value":"United Arab Emirates"},"countryiso3code":"ARE","date":"2008","value":3.19183627331763,"unit":"","obs_status":"","decimal":1},{"indicator":{"id":"NY.GDP.MKTP.KD.ZG","value":"GDP growth (annual %)"},"country":{"id":"AE","value":"United Arab Emirates"},"countryiso3code":"ARE","date":"2007","value":3.18439017324592,"unit":"","obs_status":"","decimal":1},{"indicator":{"id":"NY.GDP.MKTP.KD.ZG","value":"GDP growth (annual %)"},"country":{"id":"AE","value":"United Arab Emirates"},"countryiso3code":"ARE","date":"2006","value":9.83731976924005,"unit":"","obs_status":"","decimal":1},{"indicator":{"id":"NY.GDP.MKTP.KD.ZG","value":"GDP growth (annual %)"},"country":{"id":"AE","value":"United Arab Emirates"},"countryiso3code":"ARE","date":"2005","value":4.85514119553341,"unit":"","obs_status":"","decimal":1},{"indicator":{"id":"NY.GDP.MKTP.KD.ZG","value":"GDP growth (annual %)"},"country":{"id":"AE","value":"United Arab Emirates"},"countryiso3code":"ARE","date":"2004","value":9.56643663767056,"unit":"","obs_status":"","decimal":1},{"indicator":{"id":"NY.GDP.MKTP.KD.ZG","value":"GDP growth (annual %)"},"country":{"id":"AE","value":"United Arab Emirates"},"countryiso3code":"ARE","date":"2003","value":8.80054081355328,"unit":"","obs_status":"","decimal":1},{"indicator":{"id":"NY.GDP.MKTP.KD.ZG","value":"GDP growth (annual %)"},"country":{"id":"AE","value":"United Arab Emirates"},"countryiso3code":"ARE","date":"2002","value":2.43345681089617,"unit":"","obs_status":"","decimal":1},{"indicator":{"id":"NY.GDP.MKTP.KD.ZG","value":"GDP growth (annual %)"},"country":{"id":"AE","value":"United Arab Emirates"},"countryiso3code":"ARE","date":"2001","value":1.39908503706683,"unit":"","obs_status":"","decimal":1},{"indicator":{"id":"NY.GDP.MKTP.KD.ZG","value":"GDP growth (annual %)"},"country":{"id":"AE","value":"United Arab Emirates"},"countryiso3code":"ARE","date":"2000","value":10.8527042153779,"unit":"","obs_status":"","decimal":1},{"indicator":{"id":"NY.GDP.MKTP.KD.ZG","value":"GDP growth (annual %)"},"country":{"id":"AE","value":"United Arab Emirates"},"countryiso3code":"ARE","date":"1999","value":2.90221363963283,"unit":"","obs_status":"","decimal":1},{"indicator":{"id":"NY.GDP.MKTP.KD.ZG","value":"GDP growth (annual %)"},"country":{"id":"AE","value":"United Arab Emirates"},"countryiso3code":"ARE","date":"1998","value":0.291994342094213,"unit":"","obs_status":"","decimal":1},{"indicator":{"id":"NY.GDP.MKTP.KD.ZG","value":"GDP growth (annual %)"},"country":{"id":"AE","value":"United Arab Emirates"},"countryiso3code":"ARE","date":"1997","value":8.19039864916886,"unit":"","obs_status":"","decimal":1},{"indicator":{"id":"NY.GDP.MKTP.KD.ZG","value":"GDP growth (annual %)"},"country":{"id":"AE","value":"United Arab Emirates"},"countryiso3code":"ARE","date":"1996","value":5.79840406919965,"unit":"","obs_status":"","decimal":1},{"indicator":{"id":"NY.GDP.MKTP.KD.ZG","value":"GDP growth (annual %)"},"country":{"id":"AE","value":"United Arab Emirates"},"countryiso3code":"ARE","date":"1995","value":6.68788645972636,"unit":"","obs_status":"","decimal":1},{"indicator":{"id":"NY.GDP.MKTP.KD.ZG","value":"GDP growth (annual %)"},"country":{"id":"AE","value":"United Arab Emirates"},"countryiso3code":"ARE","date":"1994","value":6.89614855343763,"unit":"","obs_status":"","decimal":1},{"indicator":{"id":"NY.GDP.MKTP.KD.ZG","value":"GDP growth (annual %)"},"country":{"id":"AE","value":"United Arab Emirates"},"countryiso3code":"ARE","date":"1993","value":1.26119094566648,"unit":"","obs_status":"","decimal":1},{"indicator":{"id":"NY.GDP.MKTP.KD.ZG","value":"GDP growth (annual %)"},"country":{"id":"AE","value":"United Arab Emirates"},"countryiso3code":"ARE","date":"1992","value":3.34494485849423,"unit":"","obs_status":"","decimal":1},{"indicator":{"id":"NY.GDP.MKTP.KD.ZG","value":"GDP growth (annual %)"},"country":{"id":"AE","value":"United Arab Emirates"},"countryiso3code":"ARE","date":"1991","value":0.860081947717788,"unit":"","obs_status":"","decimal":1},{"indicator":{"id":"NY.GDP.MKTP.KD.ZG","value":"GDP growth (annual %)"},"country":{"id":"AE","value":"United Arab Emirates"},"countryiso3code":"ARE","date":"1990","value":18.3279855336307,"unit":"","obs_status":"","decimal":1},{"indicator":{"id":"NY.GDP.MKTP.KD.ZG","value":"GDP growth (annual %)"},"country":{"id":"AE","value":"United Arab Emirates"},"countryiso3code":"ARE","date":"1989","value":12.3378912821231,"unit":"","obs_status":"","decimal":1},{"indicator":{"id":"NY.GDP.MKTP.KD.ZG","value":"GDP growth (annual %)"},"country":{"id":"AE","value":"United Arab Emirates"},"countryiso3code":"ARE","date":"1988","value":-2.61890770379121,"unit":"","obs_status":"","decimal":1},{"indicator":{"id":"NY.GDP.MKTP.KD.ZG","value":"GDP growth (annual %)"},"country":{"id":"AE","value":"United Arab Emirates"},"countryiso3code":"ARE","date":"1987","value":3.38198170911031,"unit":"","obs_status":"","decimal":1},{"indicator":{"id":"NY.GDP.MKTP.KD.ZG","value":"GDP growth (annual %)"},"country":{"id":"AE","value":"United Arab Emirates"},"countryiso3code":"ARE","date":"1986","value":-14.9581365646217,"unit":"","obs_status":"","decimal":1},{"indicator":{"id":"NY.GDP.MKTP.KD.ZG","value":"GDP growth (annual %)"},"country":{"id":"AE","value":"United Arab Emirates"},"countryiso3code":"ARE","date":"1985","value":-3.59447651738606,"unit":"","obs_status":"","decimal":1},{"indicator":{"id":"NY.GDP.MKTP.KD.ZG","value":"GDP growth (annual %)"},"country":{"id":"AE","value":"United Arab Emirates"},"countryiso3code":"ARE","date":"1984","value":4.01695127951238,"unit":"","obs_status":"","decimal":1},{"indicator":{"id":"NY.GDP.MKTP.KD.ZG","value":"GDP growth (annual %)"},"country":{"id":"AE","value":"United Arab Emirates"},"countryiso3code":"ARE","date":"1983","value":-4.74582069985284,"unit":"","obs_status":"","decimal":1},{"indicator":{"id":"NY.GDP.MKTP.KD.ZG","value":"GDP growth (annual %)"},"country":{"id":"AE","value":"United Arab Emirates"},"countryiso3code":"ARE","date":"1982","value":-6.71931618568094,"unit":"","obs_status":"","decimal":1},{"indicator":{"id":"NY.GDP.MKTP.KD.ZG","value":"GDP growth (annual %)"},"country":{"id":"AE","value":"United Arab Emirates"},"countryiso3code":"ARE","date":"1981","value":4.65917667398337,"unit":"","obs_status":"","decimal":1},{"indicator":{"id":"NY.GDP.MKTP.KD.ZG","value":"GDP growth (annual %)"},"country":{"id":"AE","value":"United Arab Emirates"},"countryiso3code":"ARE","date":"1980","value":23.8747749106529,"unit":"","obs_status":"","decimal":1},{"indicator":{"id":"NY.GDP.MKTP.KD.ZG","value":"GDP growth (annual %)"},"country":{"id":"AE","value":"United Arab Emirates"},"countryiso3code":"ARE","date":"1979","value":20.923573076849,"unit":"","obs_status":"","decimal":1},{"indicator":{"id":"NY.GDP.MKTP.KD.ZG","value":"GDP growth (annual %)"},"country":{"id":"AE","value":"United Arab Emirates"},"countryiso3code":"ARE","date":"1978","value":-1.5896033198588,"unit":"","obs_status":"","decimal":1},{"indicator":{"id":"NY.GDP.MKTP.KD.ZG","value":"GDP growth (annual %)"},"country":{"id":"AE","value":"United Arab Emirates"},"countryiso3code":"ARE","date":"1977","value":21.4393301703121,"unit":"","obs_status":"","decimal":1},{"indicator":{"id":"NY.GDP.MKTP.KD.ZG","value":"GDP growth (annual %)"},"country":{"id":"AE","value":"United Arab Emirates"},"countryiso3code":"ARE","date":"1976","value":16.52685650611,"unit":"","obs_status":"","decimal":1}]]